<?xml version="1.0" encoding="UTF-8" standalone="no"?>
<svg width="133px" height="46px" viewBox="0 0 133 46" version="1.1" xmlns="http://www.w3.org/2000/svg" xmlns:xlink="http://www.w3.org/1999/xlink">
    <!-- Generator: Sketch 40.3 (33839) - http://www.bohemiancoding.com/sketch -->
    <title>logo</title>
    <desc>Created with Sketch.</desc>
    <defs>
        <polygon  id="path-1" points="39.1535776 0.0927892327 0 0.0927892327 0 44.8255651 39.1535776 44.8255651 39.1535776 0.0927892327"></polygon>
        <polygon  id="path-3" points="8.26246916 11.242962 8.26246916 0.362864173 0.0227114845 0.362864173 0.0227114845 11.242962 8.26246916 11.242962"></polygon>
    </defs>
    <g id="Page-1" stroke="none" stroke-width="1" fill="none" fill-rule="evenodd">
        <g id="logo">
            <g>
                <g id="Group-3" transform="translate(0.000000, 0.355558)">
                    <mask id="mask-2" fill="white">
                        <use xlink:href="#path-1"></use>
                    </mask>
                    <g id="Clip-2"></g>
                    <path d="M29.1398068,32.1212566 C28.7135776,32.5009304 20.0789356,42.6947466 9.8774346,41.1791891 C-0.325233124,39.6649764 6.45476722,26.3719102 9.20892361,22.353733 C11.96308,18.3351076 23.6548277,3.82009237 34.0402762,3.23108246 C34.0402762,3.23108246 41.9126834,2.46187316 34.3342811,12.3934589 L31.4836787,15.3313363 C31.4836787,15.3313363 31.839129,16.6182826 33.0622046,15.6989072 C34.2856692,14.77998 43.2108159,7.75175595 36.9426017,1.8786906 C32.4909174,-2.29189405 22.9563718,1.55235938 16.363819,6.13175456 C16.363819,6.13175456 16.2942067,6.17971807 16.1658713,6.26892125 C14.3380635,7.55497105 12.7482596,8.89212217 11.569518,10.1221398 C7.18005692,14.312896 1.21284772,21.5818342 0.152719177,30.8280347 C0.0593843095,31.4959379 0.00766123705,32.1633928 0.000661121979,32.8268134 C0.000661121979,32.833089 -0.000116668585,32.8375716 -0.000116668585,32.8429506 L0.000661121979,32.8429506 C-0.0234503855,35.4549451 0.657894148,38.0207691 2.40247838,40.3700849 C3.1102678,41.3141145 6.8685518,45.8123751 13.3028242,44.628528 C13.7807765,44.5299114 14.2797292,44.4079855 14.7985155,44.2609571 C14.8591832,44.2425786 14.9179063,44.2286826 14.9770184,44.2071662 C19.1918655,42.9672869 24.6476774,39.9411028 29.7270387,32.819193 C29.7270387,32.819193 29.5668138,31.7411345 29.1398068,32.1212566" id="Fill-1" fill="black" mask="url(#mask-2)"></path>
                </g>
                <path d="M88.0855202,34.8301643 C86.753165,34.8301643 85.8229275,35.9315321 85.8229275,37.5268794 C85.8229275,39.0621602 86.753165,40.1922165 88.0353528,40.1922165 C89.4194311,40.1922165 90.3232237,39.0621602 90.3232237,37.5268794 C90.2995011,35.9028437 89.3925973,34.8301643 88.0855202,34.8301643" id="Fill-4" fill="black"></path>
                <path d="M112.688475,34.8301643 C111.355342,34.8301643 110.425493,35.9315321 110.425493,37.5268794 C110.425493,39.0621602 111.355342,40.1922165 112.638307,40.1922165 C114.022386,40.1922165 114.926956,39.0621602 114.926956,37.5268794 C114.900122,35.9028437 113.995552,34.8301643 112.688475,34.8301643" id="Fill-6" fill="black"></path>
                <path d="M97.100774,31.4638427 C97.8369528,31.4638427 98.3359054,31.6153536 98.6660775,31.7843465 L99.1082514,29.3834812 C98.5182973,29.1279746 97.7082284,28.9800497 96.9701052,28.9800497 C93.6151056,28.9800497 91.8090759,31.4638427 91.8090759,34.504371 C91.8090759,37.7555802 93.6707176,39.8171149 96.5827655,39.8171149 C97.6530053,39.8171149 98.5925763,39.6032962 99.0907512,39.3276181 L98.7582457,36.9491656 C98.3359054,37.1607429 97.8186747,37.2867032 97.1548304,37.2867032 C95.7913636,37.2867032 94.6845676,36.2687112 94.6845676,34.3766177 C94.6662895,32.6781713 95.6249164,31.4638427 97.100774,31.4638427" id="Fill-8" fill="black"></path>
                <path d="M104.656893,37.5212314 C103.457929,37.5212314 102.813529,36.1827355 102.813529,34.3977754 C102.813529,32.868322 103.328037,31.2738713 104.656893,31.2738713 C105.92858,31.2738713 106.444255,32.8463574 106.444255,34.3767074 C106.444255,36.2688008 105.762911,37.5212314 104.656893,37.5212314 M104.748672,28.958623 C101.836624,28.958623 99.9185925,31.1048783 99.9185925,34.4829443 C99.9185925,37.8399422 101.947459,39.8387209 104.584169,39.8387209 C106.998042,39.8387209 109.337247,38.0967936 109.337247,34.2915385 C109.337247,31.1470145 107.496217,28.958623 104.748672,28.958623" id="Fill-10" fill="black"></path>
                <path d="M119.97645,36.9917948 C120.492125,36.4166809 120.952577,35.7572946 121.45153,35.0997013 L124.160185,31.168486 L124.160185,29.2136365 L116.788675,29.2136365 L116.788675,31.7843914 L120.731296,31.7843914 L120.731296,31.8269758 C120.233121,32.4442259 119.829837,32.9731694 119.312606,33.6545202 L116.474059,37.755625 L116.474059,39.603341 L124.308355,39.603341 L124.308355,37.032138 L119.97645,37.032138 L119.97645,36.9917948 Z" id="Fill-12" fill="black"></path>
                <g id="Group-16" transform="translate(125.224281, 28.595759)">
                    <mask id="mask-4" fill="white">
                        <use xlink:href="#path-3"></use>
                    </mask>
                    <g id="Clip-15"></g>
                    <path d="M5.40579998,7.2261296 C5.40579998,7.41708715 5.38674411,7.60894121 5.35018795,7.77927894 C5.16546269,8.43642394 4.57550855,8.9694017 3.89416402,8.9694017 C3.26687593,8.9694017 2.78853473,8.56507374 2.78853473,7.73490148 C2.78853473,6.50398731 3.93149796,6.10055586 5.40579998,6.10055586 L5.40579998,7.2261296 Z M8.11484451,8.50007645 L8.11484451,4.86784866 C8.11484451,2.40243427 7.17644019,0.362864173 4.17066856,0.362864173 C2.53069716,0.362864173 1.29362127,0.893600654 0.669055443,1.2970321 L1.18434169,3.37918662 C1.77429583,2.95468709 2.75197857,2.59339182 3.6732715,2.59339182 C5.05501643,2.59339182 5.31402069,3.37918662 5.31402069,3.95385231 L5.31402069,4.08250211 C2.12430159,4.08250211 0.0227114845,5.35465594 0.0227114845,8.05406058 C0.0227114845,9.71171557 1.11045159,11.242962 2.93475935,11.242962 C4.00499917,11.242962 4.92745878,10.7960496 5.51663513,9.96901518 L5.57146937,9.96901518 L5.73636097,11.007627 L8.26262472,11.007627 C8.15178956,10.4334096 8.11484451,9.47638055 8.11484451,8.50007645 L8.11484451,8.50007645 Z" id="Fill-14" fill="black" mask="url(#mask-4)"></path>
                </g>
                <path d="M65.9450896,22.8806593 C65.9450896,22.8806593 66.1706489,22.7538025 66.5999893,22.5762927 C66.7221024,22.5193641 66.9196612,22.4382295 67.2043325,22.346785 C68.0618466,22.046901 69.3382009,21.7075703 70.9649499,21.5645763 C71.2414545,20.9065348 72.1514694,18.247025 68.4674644,18.6428361 C68.3527403,18.6455256 68.2337383,18.6509047 68.1069585,18.6621112 C66.4829318,18.8494827 64.4385093,20.0086757 64.1410044,20.1821512 C63.299435,20.6819579 62.4520322,21.2835191 61.9670798,21.9016657 C62.4656435,21.1208017 63.5288832,19.1417463 61.8655781,18.6840758 C59.7775993,18.1116514 59.9627135,18.2335773 59.7332653,18.8956531 C59.6998203,18.994718 59.5594291,19.3268765 59.325703,19.8329589 L51.2028473,35.4847542 C51.3965171,36.249481 54.3540657,42.9966478 55.7933672,38.566074 C57.4030047,33.6693127 59.3019804,28.4336691 60.2065508,26.9149738 C60.8490058,25.8378118 63.6754967,23.9546835 65.9458674,22.8806593 L65.9450896,22.8806593 Z" id="Fill-17" fill="black"></path>
                <path d="M42.1450095,32.2666712 C40.3669803,34.2609674 38.5621172,35.7984894 37.0932598,36.0665472 C32.7893557,36.8501007 35.5034559,31.138408 35.5034559,31.138408 C36.4391379,28.950913 37.7676042,27.2533631 39.2372395,25.9395214 L39.2364617,25.9381766 C39.2364617,25.9381766 43.6488675,21.2399933 49.4807412,21.4703975 C49.4807412,21.4703975 49.5659092,24.1433549 42.1450095,32.2666712 M47.9376047,34.4281673 C47.9193266,34.0534243 47.9570495,33.4801034 48.1728863,32.6624823 C48.2176093,32.5338325 48.222276,32.4258025 48.2806103,32.2832568 C48.8359528,30.4584018 50.2161422,27.5864182 53.4875293,23.2965971 L54.7634947,21.7631094 C54.7634947,21.7631094 55.5039513,20.6397769 54.4772678,19.752676 L53.5929199,18.8691611 C53.5929199,18.8691611 52.7505727,18.2859786 51.3925504,19.3039706 L51.056156,19.5150997 C51.056156,19.5150997 48.2829437,16.8363149 42.3530685,19.9853215 C42.3530685,19.9853215 42.321179,20.0010105 42.262067,20.033285 C41.9991737,20.1749343 41.7288915,20.3309278 41.4531648,20.4967829 C41.4531648,20.4967829 41.218272,20.6075024 40.846877,20.8742154 C40.3926473,21.1678239 39.9232507,21.4919138 39.4379094,21.8527608 C37.8107716,23.0370563 35.7904606,24.7543294 34.1613782,26.9068603 C33.4146993,27.7872374 32.7220768,28.7218536 32.153123,29.6873995 L32.153123,29.6856065 L32.1523452,29.6887443 C31.8680628,30.1679312 31.6168364,30.6578763 31.4033329,31.1505109 C31.4033329,31.1505109 29.6381372,35.2027557 31.1373285,37.8080263 C31.5557798,38.5718565 32.2530691,39.1944857 33.3470315,39.5562292 C33.8545399,39.7888747 34.4756056,39.9175245 35.2331736,39.9072146 C35.3265085,39.9054216 35.4182878,39.8995942 35.5116227,39.8942151 C35.5299007,39.8951116 35.5466232,39.8964564 35.5649013,39.8964564 L35.5641235,39.8924221 C39.7949153,39.6539493 43.2813615,36.1109247 44.2147102,35.0754506 C44.2147102,35.0754506 44.3247675,36.646592 45.2203934,38.025431 C45.3277285,38.2015961 45.4436193,38.3593826 45.5684546,38.4983423 C46.3112446,39.3917188 47.457319,40.0963791 49.2201813,40.0564842 C50.4498682,38.6104066 49.4558519,35.9047264 49.1618471,35.194687 C48.683117,35.2032039 48.1075519,35.0727611 47.9376047,34.4281673" id="Fill-19" fill="black"></path>
                <path d="M83.181823,22.6291422 C85.3118024,22.4332539 87.0692202,22.4794243 86.9280512,21.5766344 C86.7861044,20.6733962 86.3789311,18.5428299 84.5542344,17.9130286 C83.0390984,17.3903608 77.9931821,19.2546623 74.8684085,20.8119077 C74.8684085,20.8119077 74.5145138,20.9750733 73.9910608,21.270923 C73.9183374,21.3103697 73.8460028,21.3502645 73.7775573,21.3901594 C73.7740572,21.3906077 73.770946,21.3919525 73.7678349,21.394642 C73.6811112,21.443502 73.5974987,21.4919138 73.5169974,21.5385326 C72.3981457,22.205091 71.5977992,22.8680633 71.0226231,23.4732105 C70.6002828,23.9084682 70.2288878,24.3831725 69.9632723,24.8914961 C69.2422605,26.1542366 69.2605386,27.1726768 69.4359303,27.8482004 C69.4962091,28.1140169 69.6023775,28.3870055 69.7769915,28.6519255 C69.8256034,28.7254396 69.8574928,28.764438 69.8574928,28.764438 C70.5170592,29.6479529 71.9964169,30.402818 75.1371352,30.3938528 C77.8551243,30.3853359 79.6051531,30.6040854 80.7103934,30.8739362 C81.0148985,30.9586568 81.5395182,31.1563382 81.7506883,31.5422877 C82.2080292,32.3706669 81.1265114,33.1887362 81.0992887,33.2098043 C81.0953998,33.2120456 81.0915108,33.2133904 81.0883997,33.2165282 C80.3304428,33.8584324 78.130851,35.4546762 74.0155612,36.4780473 C71.8513589,37.054506 69.7346019,37.3010474 68.0771302,37.335115 C68.0724635,37.335115 68.0674078,37.336908 68.0627411,37.336908 L68.0642967,37.335115 C66.5223269,37.3669412 65.3789748,37.2176716 64.9737459,36.9845779 C63.6542242,36.226575 65.5707001,34.6491581 66.8124428,34.0870436 C68.0553521,33.5235843 69.9951617,32.4742143 69.9951617,32.4742143 C68.7545858,31.9304784 62.2421454,33.3025935 62.2378676,35.567637 C62.2316452,37.8313357 64.1951775,39.4168212 64.1951775,39.4168212 C69.8998824,42.1606033 77.291615,39.2052439 79.2244246,38.3127639 C80.5194459,37.7156853 83.578885,35.6330825 84.425899,33.3460745 C85.4156375,31.0317228 84.1252829,29.6345052 82.4549777,28.8020916 C81.3423483,28.2547696 80.0675495,27.9584716 78.844085,27.8105468 C78.7631948,27.8096503 78.6624709,27.7997886 78.5325799,27.7751345 C78.0371273,27.7249297 77.5533415,27.6984825 77.0963896,27.685483 C76.021483,27.6814487 74.7840182,27.7589972 74.2236201,27.7984438 C74.1186184,27.8096503 74.0245058,27.8154776 73.9366154,27.8195119 C73.9249486,27.8204084 73.9167818,27.821305 73.9167818,27.821305 L73.9183374,27.8204084 C73.6044989,27.8307184 73.3917731,27.795306 73.2568265,27.7554111 C73.2443818,27.7545146 73.236215,27.7545146 73.236215,27.7545146 C73.2117146,27.7451012 73.1860475,27.7338948 73.1615471,27.7222401 C73.0826014,27.6899656 73.050712,27.6617254 73.050712,27.6617254 C72.7446514,27.4721126 72.5358146,27.1170929 73.0499342,26.4594997 C74.9862438,23.9922923 81.2812917,22.804859 83.181823,22.6291422" id="Fill-21" fill="black"></path>
            </g>
        </g>
    </g>
</svg>